%YAML 1.1
%TAG !u! tag:unity3d.com,2011:
--- !u!114 &11400000
MonoBehaviour:
  m_ObjectHideFlags: 0
  m_CorrespondingSourceObject: {fileID: 0}
  m_PrefabInstance: {fileID: 0}
  m_PrefabAsset: {fileID: 0}
  m_GameObject: {fileID: 0}
  m_Enabled: 1
  m_EditorHideFlags: 0
  m_Script: {fileID: 11500000, guid: 10ce9bba481c4ea4794c9bd173a4b677, type: 3}
  m_Name: 6A0C3C3F-FDFD-4D80-BFB9-5B3FA93629CD
  m_EditorClassIdentifier: 
  objectName: arcade_machine
  id: 207679019
  guid: 6A0C3C3F-FDFD-4D80-BFB9-5B3FA93629CD
