%YAML 1.1
%TAG !u! tag:unity3d.com,2011:
--- !u!114 &11400000
MonoBehaviour:
  m_ObjectHideFlags: 0
  m_CorrespondingSourceObject: {fileID: 0}
  m_PrefabInstance: {fileID: 0}
  m_PrefabAsset: {fileID: 0}
  m_GameObject: {fileID: 0}
  m_Enabled: 1
  m_EditorHideFlags: 0
  m_Script: {fileID: 11500000, guid: 10ce9bba481c4ea4794c9bd173a4b677, type: 3}
  m_Name: BE65D18B-C436-4561-BF2A-B49C0A7C62DC
  m_EditorClassIdentifier: 
  objectName: conditioner
  id: 1459754021
  guid: BE65D18B-C436-4561-BF2A-B49C0A7C62DC
