%YAML 1.1
%TAG !u! tag:unity3d.com,2011:
--- !u!114 &11400000
MonoBehaviour:
  m_ObjectHideFlags: 0
  m_CorrespondingSourceObject: {fileID: 0}
  m_PrefabInstance: {fileID: 0}
  m_PrefabAsset: {fileID: 0}
  m_GameObject: {fileID: 0}
  m_Enabled: 1
  m_EditorHideFlags: 0
  m_Script: {fileID: 11500000, guid: 10ce9bba481c4ea4794c9bd173a4b677, type: 3}
  m_Name: EA3F7F4F-B66A-4E5D-9229-FE570090FDA9
  m_EditorClassIdentifier: 
  objectName: dialog
  id: 1235749641
  guid: EA3F7F4F-B66A-4E5D-9229-FE570090FDA9
