%YAML 1.1
%TAG !u! tag:unity3d.com,2011:
--- !u!114 &11400000
MonoBehaviour:
  m_ObjectHideFlags: 0
  m_CorrespondingSourceObject: {fileID: 0}
  m_PrefabInstance: {fileID: 0}
  m_PrefabAsset: {fileID: 0}
  m_GameObject: {fileID: 0}
  m_Enabled: 1
  m_EditorHideFlags: 0
  m_Script: {fileID: 11500000, guid: c11166e5ae8cdb64f8eb1873455d629b, type: 3}
  m_Name: AkWwiseInitializationSettings
  m_EditorClassIdentifier: 
  PlatformSettingsNameList:
  - Mac
  - Windows
  PlatformSettingsList:
  - {fileID: 11400000, guid: 249cffd92ea336c48a25fa1828c7c7b8, type: 2}
  - {fileID: 11400000, guid: a6deae0639891c344905aec95fe987a6, type: 2}
  InvalidReferencePlatforms: []
  UserSettings:
    m_BasePath: Audio\GeneratedSoundBanks
    m_StartupLanguage: English(US)
    m_CallbackManagerBufferSize: 4096
    m_EngineLogging: 1
    m_MaximumNumberOfPositioningPaths: 255
    m_CommandQueueSize: 262144
    m_SamplesPerFrame: 1024
    m_MainOutputSettings:
      m_AudioDeviceShareset: 
      m_DeviceID: 0
      m_PanningRule: 0
      m_ChannelConfig:
        m_ChannelConfigType: 0
        m_ChannelMask: 0
        m_NumberOfChannels: 0
    m_StreamingLookAheadRatio: 1
    m_SampleRate: 48000
    m_NumberOfRefillsInVoice: 4
    m_SpatialAudioSettings:
      m_MaxSoundPropagationDepth: 8
      m_DiffractionFlags: -1
      m_MovementThreshold: 1
      m_NumberOfPrimaryRays: 100
      m_MaxReflectionOrder: 1
      m_MaxPathLength: 10000
      m_EnableDiffractionOnReflections: 1
      m_EnableDirectPathDiffraction: 1
      m_EnableTransmission: 1
  AdvancedSettings:
    m_IOMemorySize: 2097152
    m_TargetAutoStreamBufferLengthMs: 380
    m_UseStreamCache: 0
    m_MaximumPinnedBytesInCache: 4294967295
    m_EnableGameSyncPreparation: 0
    m_ContinuousPlaybackLookAhead: 1
    m_MonitorQueuePoolSize: 65536
    m_MaximumHardwareTimeoutMs: 1000
    m_DebugOutOfRangeCheckEnabled: 0
    m_DebugOutOfRangeLimit: 16
    m_SpatialAudioSettings:
      m_DiffractionShadowAttenuationFactor: 1
      m_DiffractionShadowDegrees: 30
    m_RenderDuringFocusLoss: 0
    m_SoundBankPersistentDataPath: 
    m_UseAsyncOpen: 0
  CommsSettings:
    m_PoolSize: 262144
    m_DiscoveryBroadcastPort: 24024
    m_CommandPort: 0
    m_NotificationPort: 0
    m_InitializeSystemComms: 1
    m_NetworkName: 
